(module Conn_SMA_Molex_73251-1150 (layer F.Cu) (tedit 58A9E420)
  (descr "50 Ohms, SMA Jack Receptacle, Edge Mount, .25µm Gold (Au) Plating, 80 Pieces Per Tray")
  (tags "SMA RF Connector")
  (fp_text reference REF** (at 0 -7.62) (layer F.SilkS)
    (effects (font (size 1 1) (thickness 0.2)))
  )
  (fp_text value Conn_SMA_Molex_73251-1150 (at 0 7.62) (layer F.Fab)
    (effects (font (size 1 1) (thickness 0.2)))
  )
  (fp_line (start -3.048 6.096) (end -3.048 -5.842) (layer F.CrtYd) (width 0.05))
  (fp_line (start 12.954 6.096) (end -3.048 6.096) (layer F.CrtYd) (width 0.05))
  (fp_line (start 12.954 -5.842) (end 12.954 6.096) (layer F.CrtYd) (width 0.05))
  (fp_line (start -3.048 -5.842) (end 12.954 -5.842) (layer F.CrtYd) (width 0.05))
  (fp_line (start 4.826 -5.08) (end 3.048 -5.08) (layer F.SilkS) (width 0.12))
  (fp_line (start 4.826 -3.048) (end 4.826 -5.08) (layer F.SilkS) (width 0.12))
  (fp_line (start 12.7 -3.048) (end 4.826 -3.048) (layer F.SilkS) (width 0.12))
  (fp_line (start 12.7 3.048) (end 12.7 -3.048) (layer F.SilkS) (width 0.12))
  (fp_line (start 4.826 3.048) (end 12.7 3.048) (layer F.SilkS) (width 0.12))
  (fp_line (start 4.826 5.08) (end 4.826 3.048) (layer F.SilkS) (width 0.12))
  (fp_line (start 3.048 5.08) (end 4.826 5.08) (layer F.SilkS) (width 0.12))
  (pad 2 smd rect (at 0 -4.3) (size 5.08 2.4) (layers F.Cu F.Paste F.Mask))
  (pad 1 smd rect (at 0 0) (size 5.08 2.29) (layers F.Cu F.Paste F.Mask))
  (pad 2 smd rect (at 0 4.3) (size 5.08 2.4) (layers F.Cu F.Paste F.Mask))
  (pad 2 smd rect (at 0 -4.3) (size 5.08 2.4) (layers B.Cu B.Paste B.Mask))
  (pad 2 smd rect (at 0 4.3) (size 5.08 2.4) (layers B.Cu B.Paste B.Mask))
  (model /home/azisi/Documents/SatNOGS/satnogs-diplexer/libs/Conn_RF.3dshapes/Conn_SMA_Molex_73251-1150.wrl
    (at (xyz 0.49 0 0.013))
    (scale (xyz 0.3937 0.3937 0.3937))
    (rotate (xyz 0 0 180))
  )
)
