(module NEG-12 (layer F.Cu) (tedit 5AE39C68)
  (attr smd)
  (fp_text reference U3 (at 0 -2.237499) (layer F.SilkS)
    (effects (font (size 1 1) (thickness 0.15)))
  )
  (fp_text value F2972 (at 0 2.237499) (layer F.Fab)
    (effects (font (size 1 1) (thickness 0.15)))
  )
  (fp_line (start -1.5 1.5) (end -1.5 -1.5) (layer F.CrtYd) (width 0.05))
  (fp_line (start 1.5 1.5) (end -1.5 1.5) (layer F.CrtYd) (width 0.05))
  (fp_line (start 1.5 -1.5) (end 1.5 1.5) (layer F.CrtYd) (width 0.05))
  (fp_line (start -1.5 -1.5) (end 1.5 -1.5) (layer F.CrtYd) (width 0.05))
  (fp_line (start -1 -1.15) (end -1.2375 -1.15) (layer F.SilkS) (width 0.15))
  (fp_line (start -1.15 1.15) (end -1.15 1) (layer F.SilkS) (width 0.15))
  (fp_line (start -1 1.15) (end -1.15 1.15) (layer F.SilkS) (width 0.15))
  (fp_line (start 1.15 1.15) (end 1.15 1) (layer F.SilkS) (width 0.15))
  (fp_line (start 1 1.15) (end 1.15 1.15) (layer F.SilkS) (width 0.15))
  (fp_line (start 1.15 -1.15) (end 1.15 -1) (layer F.SilkS) (width 0.15))
  (fp_line (start 1 -1.15) (end 1.15 -1.15) (layer F.SilkS) (width 0.15))
  (fp_line (start 1 -1) (end 0 -1) (layer F.Fab) (width 0.15))
  (fp_line (start 1 1) (end 1 -1) (layer F.Fab) (width 0.15))
  (fp_line (start -1 1) (end 1 1) (layer F.Fab) (width 0.15))
  (fp_line (start -1 0) (end -1 1) (layer F.Fab) (width 0.15))
  (fp_line (start 0 -1) (end -1 0) (layer F.Fab) (width 0.15))
  (pad 10 smd custom (at 0.5 -1) (size 0.25 0.25) (layers F.Cu F.Paste F.Mask)
    (zone_connect 0)
    (options (clearance outline) (anchor circle))
    (primitives
      (gr_poly (pts
         (xy -0.125 0.2375) (xy -0.125 -0.2375) (xy 0.125 -0.2375) (xy 0.125 0.125) (xy 0 0.2375)
) (width 0))
    ))
  (pad 4 smd custom (at -0.5 1 180) (size 0.25 0.25) (layers F.Cu F.Paste F.Mask)
    (zone_connect 0)
    (options (clearance outline) (anchor circle))
    (primitives
      (gr_poly (pts
         (xy -0.125 0.2375) (xy -0.125 -0.2375) (xy 0.125 -0.2375) (xy 0.125 0.125) (xy 0 0.2375)
) (width 0))
    ))
  (pad 12 smd custom (at -0.5 -1 180) (size 0.25 0.25) (layers F.Cu F.Paste F.Mask)
    (zone_connect 0)
    (options (clearance outline) (anchor circle))
    (primitives
      (gr_poly (pts
         (xy -0.125 -0.2375) (xy -0.125 0.2375) (xy 0.125 0.2375) (xy 0.125 -0.125) (xy 0 -0.2375)
) (width 0))
    ))
  (pad 6 smd custom (at 0.5 1) (size 0.25 0.25) (layers F.Cu F.Paste F.Mask)
    (zone_connect 0)
    (options (clearance outline) (anchor circle))
    (primitives
      (gr_poly (pts
         (xy -0.125 -0.2375) (xy -0.125 0.2375) (xy 0.125 0.2375) (xy 0.125 -0.125) (xy 0 -0.2375)
) (width 0))
    ))
  (pad 3 smd custom (at -1 0.5 270) (size 0.25 0.25) (layers F.Cu F.Paste F.Mask)
    (zone_connect 0)
    (options (clearance outline) (anchor circle))
    (primitives
      (gr_poly (pts
         (xy -0.125 -0.2375) (xy -0.125 0.2375) (xy 0.125 0.2375) (xy 0.125 -0.125) (xy 0 -0.2375)
) (width 0))
    ))
  (pad 9 smd custom (at 1 -0.5 90) (size 0.25 0.25) (layers F.Cu F.Paste F.Mask)
    (zone_connect 0)
    (options (clearance outline) (anchor circle))
    (primitives
      (gr_poly (pts
         (xy -0.125 -0.2375) (xy -0.125 0.2375) (xy 0.125 0.2375) (xy 0.125 -0.125) (xy 0 -0.2375)
) (width 0))
    ))
  (pad 7 smd custom (at 1 0.5 270) (size 0.25 0.25) (layers F.Cu F.Paste F.Mask)
    (zone_connect 0)
    (options (clearance outline) (anchor circle))
    (primitives
      (gr_poly (pts
         (xy -0.125 0.2375) (xy -0.125 -0.2375) (xy 0.125 -0.2375) (xy 0.125 0.125) (xy 0 0.2375)
) (width 0))
    ))
  (pad 13 smd rect (at 0.275 0.275) (size 0.55 0.55) (layers F.Cu F.Paste F.Mask)
    (solder_paste_margin -0.1))
  (pad 13 smd rect (at 0.275 -0.275) (size 0.55 0.55) (layers F.Cu F.Paste F.Mask)
    (solder_paste_margin -0.1))
  (pad 13 smd rect (at -0.275 0.275) (size 0.55 0.55) (layers F.Cu F.Paste F.Mask)
    (solder_paste_margin -0.1))
  (pad 13 smd rect (at -0.275 -0.275) (size 0.55 0.55) (layers F.Cu F.Paste F.Mask)
    (solder_paste_margin -0.1))
  (pad 11 smd rect (at 0 -1) (size 0.25 0.475) (layers F.Cu F.Paste F.Mask))
  (pad 8 smd rect (at 1 0 90) (size 0.25 0.475) (layers F.Cu F.Paste F.Mask))
  (pad 5 smd rect (at 0 1) (size 0.25 0.475) (layers F.Cu F.Paste F.Mask))
  (pad 2 smd rect (at -1 0 90) (size 0.25 0.475) (layers F.Cu F.Paste F.Mask))
  (pad 1 smd custom (at -1 -0.5 90) (size 0.25 0.25) (layers F.Cu F.Paste F.Mask)
    (zone_connect 0)
    (options (clearance outline) (anchor circle))
    (primitives
      (gr_poly (pts
         (xy -0.125 0.2375) (xy -0.125 -0.2375) (xy 0.125 -0.2375) (xy 0.125 0.125) (xy 0 0.2375)
) (width 0))
    ))
)
