(module SKY13411-374LF (layer F.Cu) (tedit 5AE0BAC6)
  (fp_text reference SKY13446-374LF (at 0 -1.5875) (layer F.SilkS)
    (effects (font (size 0.50038 0.29972) (thickness 0.07493)))
  )
  (fp_text value VAL** (at 1.8669 -0.6731) (layer F.SilkS) hide
    (effects (font (size 0.50038 0.29972) (thickness 0.0762)))
  )
  (fp_circle (center -0.94996 -0.94996) (end -0.89916 -0.89916) (layer F.SilkS) (width 0.2032))
  (fp_line (start 0.7493 -0.7493) (end 0.7493 0.7493) (layer F.SilkS) (width 0.2032))
  (fp_line (start 0.7493 0.7493) (end -0.7493 0.7493) (layer F.SilkS) (width 0.2032))
  (fp_line (start -0.7493 0.7493) (end -0.7493 -0.7493) (layer F.SilkS) (width 0.2032))
  (fp_line (start -0.7493 -0.7493) (end 0.7493 -0.7493) (layer F.SilkS) (width 0.2032))
  (pad 1 smd rect (at -0.7239 -0.50038) (size 0.35052 0.24892) (layers F.Cu F.Paste F.Mask))
  (pad 2 smd rect (at -0.7239 0) (size 0.35052 0.24892) (layers F.Cu F.Paste F.Mask))
  (pad 3 smd rect (at -0.7239 0.50038) (size 0.35052 0.24892) (layers F.Cu F.Paste F.Mask))
  (pad 4 smd rect (at 0.7239 0.50038) (size 0.35052 0.24892) (layers F.Cu F.Paste F.Mask))
  (pad 5 smd rect (at 0.7239 0) (size 0.35052 0.24892) (layers F.Cu F.Paste F.Mask))
  (pad 6 smd rect (at 0.7239 -0.50038) (size 0.35052 0.24892) (layers F.Cu F.Paste F.Mask))
  (pad 0 smd rect (at 0 0) (size 0.20066 1.30048) (layers F.Cu F.Paste F.Mask))
  (pad 0 smd oval (at 0.24892 0) (size 0.20066 1.19888) (layers F.Cu F.Paste F.Mask))
  (pad 0 smd rect (at 0 0) (size 0.50038 1.19888) (layers F.Cu F.Paste F.Mask))
  (pad 0 smd oval (at -0.24892 0.0508) (size 0.20066 1.09982) (layers F.Cu F.Paste F.Mask))
  (pad 0 smd rect (at -0.27432 -0.52578 315) (size 0.07112 0.14224) (layers F.Cu F.Paste F.Mask))
  (pad 0 smd rect (at -0.24892 -0.42418) (size 0.20066 0.14986) (layers F.Cu F.Paste F.Mask))
)
