(module lsf-kicad-lib:VQFN-15_2.5x3_Pitch0.5mm (layer F.Cu) (tedit 5AEED171)
  (descr http://www.ti.com/lit/ds/symlink/tps63070.pdf)
  (solder_mask_margin 0.05)
  (clearance 0.2)
  (attr smd)
  (fp_text reference U4 (at 0 -2.8) (layer F.SilkS)
    (effects (font (size 1 1) (thickness 0.15)))
  )
  (fp_text value TPS63070RNM (at 0 2.8) (layer F.Fab)
    (effects (font (size 1 1) (thickness 0.15)))
  )
  (fp_line (start -1.8 2.05) (end -1.8 -2.05) (layer F.CrtYd) (width 0.05))
  (fp_line (start 1.8 2.05) (end -1.8 2.05) (layer F.CrtYd) (width 0.05))
  (fp_line (start 1.8 -2.05) (end 1.8 2.05) (layer F.CrtYd) (width 0.05))
  (fp_line (start -1.8 -2.05) (end 1.8 -2.05) (layer F.CrtYd) (width 0.05))
  (fp_line (start -1.25 -1.65) (end -1.55 -1.65) (layer F.SilkS) (width 0.15))
  (fp_line (start -1.4 1.65) (end -1.4 1.25) (layer F.SilkS) (width 0.15))
  (fp_line (start -1.25 1.65) (end -1.4 1.65) (layer F.SilkS) (width 0.15))
  (fp_line (start 1.4 1.65) (end 1.4 1.25) (layer F.SilkS) (width 0.15))
  (fp_line (start 1.25 1.65) (end 1.4 1.65) (layer F.SilkS) (width 0.15))
  (fp_line (start 1.4 -1.65) (end 1.4 -1.25) (layer F.SilkS) (width 0.15))
  (fp_line (start 1.25 -1.65) (end 1.4 -1.65) (layer F.SilkS) (width 0.15))
  (fp_line (start 1.25 -1.5) (end -0.25 -1.5) (layer F.Fab) (width 0.15))
  (fp_line (start 1.25 1.5) (end 1.25 -1.5) (layer F.Fab) (width 0.15))
  (fp_line (start -1.25 1.5) (end 1.25 1.5) (layer F.Fab) (width 0.15))
  (fp_line (start -1.25 -0.5) (end -1.25 1.5) (layer F.Fab) (width 0.15))
  (fp_line (start -0.25 -1.5) (end -1.25 -0.5) (layer F.Fab) (width 0.15))
  (pad "" smd roundrect (at 1.06 0.008 90) (size 0.25 0.72) (layers F.Paste) (roundrect_rratio 0.25))
  (pad "" smd roundrect (at 0.14 0 90) (size 0.25 0.72) (layers F.Paste) (roundrect_rratio 0.25))
  (pad "" smd roundrect (at 1.163 -0.5 90) (size 0.25 0.575) (layers F.Paste) (roundrect_rratio 0.25))
  (pad "" smd roundrect (at 0.338 -0.5 90) (size 0.25 0.575) (layers F.Paste) (roundrect_rratio 0.25))
  (pad "" smd roundrect (at 0.338 0.5 90) (size 0.25 0.575) (layers F.Paste) (roundrect_rratio 0.25))
  (pad 10 smd roundrect (at 0.6 0 90) (size 0.35 1.8) (layers F.Cu F.Mask) (roundrect_rratio 0.25)
    (solder_mask_margin -0.05) (solder_paste_margin -0.05) (clearance 0.1))
  (pad 12 smd roundrect (at 0.50038 -1.22334 90) (size 0.35 0.85) (layers F.Cu F.Paste F.Mask) (roundrect_rratio 0.25)
    (solder_mask_margin -0.05) (solder_paste_margin -0.05) (clearance 0.001))
  (pad 7 smd roundrect (at 0.50038 1.22588 90) (size 0.35 0.85) (layers F.Cu F.Paste F.Mask) (roundrect_rratio 0.25)
    (solder_mask_margin -0.05) (solder_paste_margin -0.05) (clearance 0.0001))
  (pad 15 smd roundrect (at -0.75 -1.4) (size 0.25 0.6) (layers F.Cu F.Paste F.Mask) (roundrect_rratio 0.25)
    (die_length 0.05))
  (pad 14 smd roundrect (at -0.25 -1.4) (size 0.25 0.6) (layers F.Cu F.Paste F.Mask) (roundrect_rratio 0.25))
  (pad 12 smd roundrect (at 0.25 -1.4) (size 0.35 0.7) (layers F.Cu F.Paste F.Mask) (roundrect_rratio 0.25)
    (solder_mask_margin -0.05) (solder_paste_margin -0.05) (clearance 0.15))
  (pad 12 smd roundrect (at 0.75 -1.4) (size 0.35 0.7) (layers F.Cu F.Paste F.Mask) (roundrect_rratio 0.25)
    (solder_mask_margin -0.05) (solder_paste_margin -0.05) (clearance 0.15))
  (pad 11 smd roundrect (at 0.775 -0.5 90) (size 0.35 1.45) (layers F.Cu F.Mask) (roundrect_rratio 0.25)
    (solder_mask_margin -0.05) (clearance 0.1))
  (pad "" smd roundrect (at 1.163 0.5 90) (size 0.25 0.575) (layers F.Paste) (roundrect_rratio 0.25))
  (pad 9 smd roundrect (at 0.775 0.5 90) (size 0.35 1.45) (layers F.Cu F.Mask) (roundrect_rratio 0.25)
    (solder_mask_margin -0.05) (clearance 0.1))
  (pad 7 smd roundrect (at 0.75 1.4) (size 0.35 0.7) (layers F.Cu F.Paste F.Mask) (roundrect_rratio 0.25)
    (solder_mask_margin -0.05) (solder_paste_margin -0.05) (clearance 0.15))
  (pad 7 smd roundrect (at 0.25 1.4) (size 0.35 0.7) (layers F.Cu F.Paste F.Mask) (roundrect_rratio 0.25)
    (solder_mask_margin -0.05) (solder_paste_margin -0.05) (clearance 0.15))
  (pad 6 smd roundrect (at -0.25 1.4) (size 0.25 0.6) (layers F.Cu F.Paste F.Mask) (roundrect_rratio 0.25))
  (pad 5 smd roundrect (at -0.75 1.4) (size 0.25 0.6) (layers F.Cu F.Paste F.Mask) (roundrect_rratio 0.25))
  (pad 4 smd roundrect (at -1.15 0.75 90) (size 0.25 0.6) (layers F.Cu F.Paste F.Mask) (roundrect_rratio 0.25))
  (pad 3 smd roundrect (at -1.15 0.25 90) (size 0.25 0.6) (layers F.Cu F.Paste F.Mask) (roundrect_rratio 0.25))
  (pad 2 smd roundrect (at -1.15 -0.25 90) (size 0.25 0.6) (layers F.Cu F.Paste F.Mask) (roundrect_rratio 0.25))
  (pad 1 smd roundrect (at -1.15 -0.75 90) (size 0.25 0.6) (layers F.Cu F.Paste F.Mask) (roundrect_rratio 0.25))
  (model ${KIPRJMOD}/libraries/lsf-kicad-lib/3d/TPS63080.stp
    (at (xyz 0 0 0))
    (scale (xyz 1 1 1))
    (rotate (xyz 0 0 0))
  )
)
