EESchema Schematic File Version 4
LIBS:power
LIBS:74xx
EELAYER 26 0
EELAYER END
$Descr A4 11693 8268
encoding utf-8
Sheet 1 1
Title ""
Date ""
Rev ""
Comp ""
Comment1 ""
Comment2 ""
Comment3 ""
Comment4 ""
$EndDescr
$Comp
L lsd-kicad:PQ9-Connector PQ9
U 1 1 59C29771
P 4800 3600
F 0 "PQ9" H 4800 4100 50  0000 C CNN
F 1 "PQ9-Connector" V 5100 3600 50  0000 C CNN
F 2 "lsf-kicad-lib:PQ9" H 4800 3600 50  0001 C CNN
F 3 "" H 4800 3600 50  0001 C CNN
	1    4800 3600
	1    0    0    -1  
$EndComp
$EndSCHEMATC
